<?xml version="1.0" standalone="no"?>
<!DOCTYPE svg PUBLIC "-//W3C//DTD SVG 20010904//EN"
 "http://www.w3.org/TR/2001/REC-SVG-20010904/DTD/svg10.dtd">
<svg version="1.0" xmlns="http://www.w3.org/2000/svg"
 width="260.000000pt" height="260.000000pt" viewBox="0 0 260.000000 260.000000"
 preserveAspectRatio="xMidYMid meet">
<metadata>
Created by potrace 1.11, written by Peter Selinger 2001-2013
</metadata>
<g transform="translate(0.000000,260.000000) scale(0.100000,-0.100000)"
fill="#000000" stroke="none">
<path d="M1089 2515 c-253 -48 -482 -168 -659 -345 -232 -231 -360 -540 -360
-866 0 -62 5 -147 11 -189 10 -64 14 -75 28 -70 9 4 99 31 201 61 102 30 191
56 198 59 8 3 12 -7 12 -30 0 -40 12 -35 -235 -91 -88 -21 -164 -41 -169 -45
-6 -6 -1 -36 13 -80 83 -257 260 -491 486 -641 212 -141 432 -208 685 -208
253 0 473 67 685 208 246 163 434 427 513 720 24 89 26 112 26 297 0 185 -2
208 -26 297 -125 462 -448 785 -906 905 -123 32 -380 41 -503 18z m456 -745
l238 -480 229 0 228 0 0 -54 c0 -96 -45 -256 -72 -256 -5 0 -69 27 -141 61
-73 33 -138 63 -145 66 -7 3 34 -89 92 -206 58 -116 106 -213 106 -216 0 -3
-41 -4 -91 -3 l-91 3 -269 565 c-147 311 -281 591 -296 623 l-29 59 -151 -319
-152 -318 114 -3 114 -3 11 -42 c6 -23 13 -50 16 -59 5 -16 -9 -18 -156 -20
l-161 -3 -116 -243 -116 -242 -88 0 -88 0 123 253 c67 138 239 492 382 785
142 292 261 532 264 532 3 0 113 -216 245 -480z"/>
</g>
</svg>
